//		아이템 정보		//


*이름		"앤션트 아머"
*Name		"Ancient Armor"
*코드		"DA117"

///////////////	공통사항		 ////////////

*내구력		125 160
*무게		90
*가격		150000

///////////////	원소		/////////////

*생체		5 12
*불		5 12
*냉기		5 12
*번개		5 12
*독		5 12

///////////////	공격성능		/////////////
// 추가요인	최소	최대	

*공격력		
*사정거리		
*공격속도		
*명중력		
*크리티컬		

//////////////	방어성능		/////////////
// 추가요인

*흡수력		5.8	6.299
//*흡수력		11.1	11.599
*방어력		260 290
*블럭율		

//////////////	이동성능		/////////////
// 추가요인

*이동속도		

//////////////	저장공간		/////////////
// 소켓공간할당

*보유공간		

//////////////	특수능력		/////////////
// 추가요인

*생명력재생	
*기력재생
*근력재생
*생명력추가
*기력추가		
*근력추가
*마법기술숙련도	

//////////////	요구특성		/////////////
// 사용제한 요구치

*레벨		75
*힘		172
*정신력		
*재능		80
*민첩성		
*건강		

/////////////	회복약		 ////////////
// 추가요인	최소	최대

*생명력상승
*기력상승		
*근력상승

//////////////	캐릭터특성	/////////////
// 캐릭터별 특화성능

**특화랜덤 Mechanician Fighter Pikeman Archer Knight Atalanta
// Rogue Pilgrim//

**흡수력	0.8	1.399
**방어력	36	50

*연결파일        "name\da117.zhoon"